<?xml version="1.0" encoding="UTF-8" standalone="no"?>
<!-- Created with Inkscape (http://www.inkscape.org/) -->

<svg
   xmlns:dc="http://purl.org/dc/elements/1.1/"
   xmlns:cc="http://creativecommons.org/ns#"
   xmlns:rdf="http://www.w3.org/1999/02/22-rdf-syntax-ns#"
   xmlns:svg="http://www.w3.org/2000/svg"
   xmlns="http://www.w3.org/2000/svg"
   xmlns:sodipodi="http://sodipodi.sourceforge.net/DTD/sodipodi-0.dtd"
   xmlns:inkscape="http://www.inkscape.org/namespaces/inkscape"
   width="117.27028mm"
   height="173.78564mm"
   viewBox="0 0 117.27028 173.78564"
   version="1.1"
   id="svg25999"
   inkscape:version="0.92.2 2405546, 2018-03-11"
   sodipodi:docname="Rlyeh_Logo.svg">
  <defs
     id="defs25993" />
  <sodipodi:namedview
     id="base"
     pagecolor="#ffffff"
     bordercolor="#666666"
     borderopacity="1.0"
     inkscape:pageopacity="0.0"
     inkscape:pageshadow="2"
     inkscape:zoom="0.35"
     inkscape:cx="-170.95745"
     inkscape:cy="207.38425"
     inkscape:document-units="mm"
     inkscape:current-layer="layer1"
     showgrid="false"
     inkscape:window-width="1280"
     inkscape:window-height="739"
     inkscape:window-x="0"
     inkscape:window-y="24"
     inkscape:window-maximized="1" />
  <metadata
     id="metadata25996">
    <rdf:RDF>
      <cc:Work
         rdf:about="">
        <dc:format>image/svg+xml</dc:format>
        <dc:type
           rdf:resource="http://purl.org/dc/dcmitype/StillImage" />
        <dc:title></dc:title>
      </cc:Work>
    </rdf:RDF>
  </metadata>
  <g
     inkscape:label="Layer 1"
     inkscape:groupmode="layer"
     id="layer1"
     transform="translate(-46.36642,-29.918107)">
    <path
       id="path5224"
       style="fill:#000000;fill-opacity:1;fill-rule:nonzero;stroke:none;stroke-width:0.35277775"
       d="m 98.826724,77.836666 c 0,-4.230861 -7.385762,-13.265852 -15.488711,-13.265852 -8.10295,0 -9.32215,14.054662 -4.1589,17.281522 5.16291,3.22686 19.647611,2.72486 19.647611,-4.01567 m 12.689406,0 c 0,-4.230861 7.38577,-13.265852 15.48872,-13.265852 8.10296,0 9.32216,14.054662 4.1589,17.281522 -5.16291,3.22686 -19.64762,2.72486 -19.64762,-4.01567 m -6.35051,-47.918559 c -21.774497,0 -39.853857,16.134381 -40.583047,36.082552 -4.34658,7.804857 -4.11627,15.884647 0.64906,22.219837 1.15958,1.54093 4.47043,5.25786 10.15545,6.48694 3.45863,0.74718 5.13922,2.65148 5.13922,5.820834 v 11.05101 c -6.88869,0.8315 -12.24421,6.71306 -12.24421,13.82189 0,7.35753 5.74083,13.38476 12.97595,13.87512 -1.11372,2.0006 -1.7601,4.29533 -1.7601,6.74326 0,7.67679 6.24551,13.92215 13.922661,13.92215 4.939239,0 9.274316,-2.59242 11.746566,-6.48074 2.47192,3.88832 6.80769,6.48074 11.74658,6.48074 7.6768,0 13.92215,-6.24536 13.92215,-13.92215 0,-2.48215 -0.66414,-4.80749 -1.80714,-6.82749 7.25807,-0.46708 13.02453,-6.50393 13.02453,-13.8777 0,-7.10918 -5.35551,-12.99075 -12.24421,-13.8219 v -10.96419 h -5.2e-4 c -0.0469,-3.777894 3.35897,-5.303754 5.39451,-5.861144 l 0.0961,-0.0284 c 3.86997,-1.25377 7.28808,-3.5998 9.37617,-6.43578 6.7952,-9.2262 2.87403,-18.793467 1.07487,-22.18366 -0.71929,-19.9577 -18.80232,-36.101159 -40.58459,-36.101159 z m 0,4.351672 c 19.6268,0 35.88771,14.524306 36.24895,32.378387 l 0.0109,0.54932 0.27027,0.478007 c 1.29434,2.286354 5.08004,10.337293 -0.52348,17.946713 -0.73624,0.99941 -2.90502,3.46857 -7.1701,4.86275 -5.41232,1.50001 -8.60326,5.2353 -8.5447,10.043314 h -5.3e-4 v 24.78609 c 0,1.47426 1.19932,2.67322 2.67322,2.67322 1.47461,0 2.67322,-1.19896 2.67322,-2.67322 0,-0.86925 -0.42311,-1.63515 -1.06763,-2.12339 v -7.30188 c 4.51415,0.76729 7.9654,4.69629 7.9654,9.42527 0,5.27755 -4.29343,9.57099 -9.57099,9.57099 -5.05601,0 -9.19855,-3.9442 -9.53792,-8.91625 v -25.44083 c 0,-1.177574 -0.95424,-2.132174 -2.13217,-2.132174 h -0.0868 c -1.17757,0 -2.13217,0.9546 -2.13217,2.132174 v 45.49128 c 0,1.4739 1.1988,2.67271 2.67271,2.67271 1.4739,0 2.6727,-1.19881 2.6727,-2.67271 0,-0.85055 -0.40644,-1.6003 -1.02732,-2.09031 v -7.32875 c 4.49438,0.78387 7.92509,4.70418 7.92509,9.41906 0,5.2772 -4.29327,9.57048 -9.57047,9.57048 -5.2765,0 -9.57012,-4.29296 -9.57048,-9.56945 v -5.3e-4 -49.746834 c 0,-1.17793 -0.95476,-2.13269 -2.13269,-2.13269 h -0.0868 c -1.17757,0 -2.13268,0.95476 -2.13268,2.13269 v 49.746314 0.001 c -2.6e-4,5.27649 -4.29363,9.56945 -9.57048,9.56945 -5.277911,0 -9.570991,-4.29328 -9.570991,-9.57048 0,-3.55071 1.94789,-6.64976 4.82761,-8.30182 0.11571,-0.061 0.229711,-0.12492 0.343651,-0.18913 0.851958,-0.44309 1.77855,-0.75807 2.755389,-0.92811 v 7.3272 c -0.621598,0.49001 -1.029398,1.2406 -1.029398,2.09186 0,1.4739 1.199129,2.67271 2.673739,2.67271 1.473909,0 2.67322,-1.19881 2.67322,-2.67271 l 0.02641,-45.49128 h -0.007 c 0,-1.177574 -0.95459,-2.132694 -2.132161,-2.132694 h -0.0869 c -1.177931,0 -2.13269,0.95512 -2.13269,2.132694 h 0.0011 l -0.02069,25.54779 c -0.227888,3.24416 -2.07417,6.04215 -4.739759,7.59437 -0.12524,0.0656 -0.24534,0.13912 -0.36846,0.20826 -1.32538,0.69533 -2.8299,1.09399 -4.42763,1.09399 -5.27791,0 -9.57203,-4.2936 -9.57203,-9.57151 0,-4.71241 3.42769,-8.63133 7.9189,-9.41802 v 7.32048 h 0.0155 c -0.62583,0.48965 -1.03612,1.24346 -1.03612,2.09754 0,1.47461 1.19913,2.67374 2.67374,2.67374 1.47391,0 2.67219,-1.19913 2.67219,-2.67374 v -24.87281 c 0,-5.225344 -3.12381,-8.897104 -8.57105,-10.074324 -4.255637,-0.91973 -6.730957,-3.69789 -7.597027,-4.84936 -5.11845,-6.80472 -2.29749,-14.059091 -0.16072,-17.77772 l 0.35709,-0.62942 0.0114,-0.54932 c 0.36089,-17.854081 16.62218,-32.378387 36.247907,-32.378387 z"
       inkscape:connector-curvature="0" />
    <g
       transform="translate(227.63474,5.2983444)"
       id="g25914"
       style="fill:#000000">
      <path
         d="m -161.46656,168.86401 c 0.37676,0 0.75353,-0.0173 1.13065,-0.0522 0.37676,-0.0349 0.72213,-0.11853 1.03611,-0.25118 0.31397,-0.13229 0.56832,-0.33514 0.76411,-0.60713 0.19509,-0.27199 0.29316,-0.65229 0.29316,-1.14088 0,-0.43251 -0.091,-0.78141 -0.27234,-1.04669 -0.18168,-0.26529 -0.41875,-0.46391 -0.71191,-0.59655 -0.2928,-0.13265 -0.61736,-0.22013 -0.97331,-0.26176 -0.3556,-0.042 -0.70097,-0.0628 -1.03611,-0.0628 h -2.28177 v 4.0192 z m -4.68913,-6.2798 h 5.14985 c 0.71156,0 1.39877,0.0663 2.06199,0.19862 0.66251,0.13299 1.25236,0.35948 1.76883,0.68051 0.51611,0.32102 0.9278,0.75318 1.23507,1.29786 0.30692,0.54434 0.46073,1.23508 0.46073,2.07222 0,1.07492 -0.29669,1.9752 -0.89006,2.70051 -0.59337,0.72602 -1.4411,1.16558 -2.54317,1.31904 l 3.93559,6.55214 h -3.18206 l -3.43323,-6.28015 h -1.92582 v 6.28015 h -2.63772 z"
         style="fill:#000000;fill-opacity:1;fill-rule:nonzero;stroke:none;stroke-width:0.35277775"
         id="path5228"
         inkscape:connector-curvature="0" />
      <path
         inkscape:connector-curvature="0"
         id="path5232"
         style="fill:#000000;fill-opacity:1;fill-rule:nonzero;stroke:none;stroke-width:0.35277775"
         d="m -148.40387,162.58421 h 2.13501 v 5.52627 h -2.13501 z" />
      <path
         d="m -138.39793,162.58407 h 2.63772 v 12.43471 h 6.30096 v 2.38619 h -8.93868 z"
         style="fill:#000000;fill-opacity:1;fill-rule:nonzero;stroke:none;stroke-width:0.35277775"
         id="path5234"
         inkscape:connector-curvature="0" />
      <path
         d="m -122.04852,171.06213 -5.56824,-8.47796 h 3.30729 l 3.64243,5.90304 3.68441,-5.90304 h 3.14007 l -5.56824,8.47796 v 6.34294 h -2.63772 z"
         style="fill:#000000;fill-opacity:1;fill-rule:nonzero;stroke:none;stroke-width:0.35277775"
         id="path5238"
         inkscape:connector-curvature="0" />
      <path
         d="m -108.2952,162.58407 h 9.818163 v 2.38619 h -7.180443 v 3.64278 h 6.803323 v 2.38619 h -6.803323 v 4.01955 h 7.556857 v 2.38619 H -108.2952 Z"
         style="fill:#000000;fill-opacity:1;fill-rule:nonzero;stroke:none;stroke-width:0.35277775"
         id="path5242"
         inkscape:connector-curvature="0" />
      <path
         d="m -91.31815,162.58407 h 2.63772 v 5.90338 h 6.92891 v -5.90338 h 2.63772 v 14.8209 h -2.63772 v -6.53133 h -6.92891 v 6.53133 h -2.63772 z"
         style="fill:#000000;fill-opacity:1;fill-rule:nonzero;stroke:none;stroke-width:0.35277775"
         id="path5246"
         inkscape:connector-curvature="0" />
    </g>
    <g
       transform="translate(227.25926,0.80136852)"
       id="g25923"
       style="fill:#000000">
      <path
         d="m -180.89284,187.70446 h 1.50707 v 6.42691 h 8.08073 v -6.42691 h 1.50706 v 14.82125 h -1.50706 v -7.01287 h -8.08073 v 7.01287 h -1.50707 z"
         style="fill:#000000;fill-opacity:1;fill-rule:nonzero;stroke:none;stroke-width:0.35277775"
         id="path5250"
         inkscape:connector-curvature="0" />
      <path
         d="m -159.64531,197.25024 h 6.4269 l -3.20287,-7.78722 z m -2.19781,5.27544 h -1.7586 l 6.44772,-14.82125 h 1.46544 l 6.44737,14.82125 h -1.75825 l -1.63301,-3.89361 h -7.57801 z"
         style="fill:#000000;fill-opacity:1;fill-rule:nonzero;stroke:none;stroke-width:0.35277775"
         id="path5254"
         inkscape:connector-curvature="0" />
      <path
         d="m -130.84062,200.18105 c -0.25118,0.37677 -0.56198,0.73272 -0.93169,1.06786 -0.36971,0.33443 -0.79198,0.62441 -1.26647,0.86854 -0.47449,0.24412 -0.98742,0.43603 -1.53846,0.57573 -0.55175,0.13935 -1.13419,0.2092 -1.74802,0.2092 -1.10278,0 -2.12478,-0.19544 -3.06669,-0.58632 -0.94227,-0.39017 -1.7586,-0.93133 -2.44934,-1.62207 -0.69109,-0.69074 -1.2319,-1.5106 -1.62243,-2.45992 -0.39087,-0.94862 -0.58631,-1.98861 -0.58631,-3.11891 0,-1.1303 0.19544,-2.16993 0.58631,-3.11926 0.39053,-0.94897 0.93134,-1.76883 1.62243,-2.45957 0.69074,-0.69073 1.50707,-1.23154 2.44934,-1.62242 0.94191,-0.39088 1.96391,-0.58596 3.06669,-0.58596 0.92111,0 1.84221,0.18097 2.76331,0.54398 0.9211,0.36301 1.70921,0.96273 2.36538,1.80058 l -1.31869,0.98389 c -0.15381,-0.23742 -0.36301,-0.47448 -0.62829,-0.7119 -0.26529,-0.23742 -0.56868,-0.44662 -0.91052,-0.62795 -0.3422,-0.18132 -0.70838,-0.32808 -1.09891,-0.43991 -0.39087,-0.11148 -0.78175,-0.16722 -1.17228,-0.16722 -0.94932,0 -1.80058,0.17463 -2.55411,0.52352 -0.75353,0.34855 -1.39206,0.81633 -1.91523,1.4023 -0.52352,0.58631 -0.92463,1.26647 -1.20368,2.04082 -0.2794,0.7747 -0.41874,1.58785 -0.41874,2.4391 0,0.85125 0.13934,1.66405 0.41874,2.43875 0.27905,0.77435 0.68016,1.45486 1.20368,2.04082 0.52317,0.58632 1.1617,1.0541 1.91523,1.40265 0.75353,0.34925 1.60479,0.52352 2.55411,0.52352 0.39053,0 0.77788,-0.0346 1.1617,-0.10478 0.38382,-0.0695 0.76059,-0.18838 1.13065,-0.35595 0.36936,-0.16757 0.71861,-0.39405 1.04634,-0.68015 0.32808,-0.28611 0.63147,-0.64559 0.91087,-1.07809 z"
         style="fill:#000000;fill-opacity:1;fill-rule:nonzero;stroke:none;stroke-width:0.35277775"
         id="path5258"
         inkscape:connector-curvature="0" />
      <path
         d="m -122.61388,194.13126 h 0.0208 0.18874 l 6.97088,-6.42691 h 2.15618 l -7.47324,6.72007 7.89199,8.10119 h -2.21932 l -7.28487,-7.64082 h -0.23036 -0.0208 v 7.64082 h -1.50707 v -14.82126 h 1.50707 z"
         style="fill:#000000;fill-opacity:1;fill-rule:nonzero;stroke:none;stroke-width:0.35277775"
         id="path5262"
         inkscape:connector-curvature="0" />
      <path
         d="m -105.23901,201.14388 h 6.908093 v 1.38183 h -8.415163 v -14.82125 h 1.50707 z"
         style="fill:#000000;fill-opacity:1;fill-rule:nonzero;stroke:none;stroke-width:0.35277775"
         id="path5266"
         inkscape:connector-curvature="0" />
      <path
         d="m -90.14584,197.25024 h 6.42691 l -3.20287,-7.78722 z m -2.19781,5.27544 h -1.758593 l 6.447723,-14.82125 h 1.46544 l 6.44736,14.82125 h -1.75824 l -1.63301,-3.89361 h -7.57802 z"
         style="fill:#000000;fill-opacity:1;fill-rule:nonzero;stroke:none;stroke-width:0.35277775"
         id="path5270"
         inkscape:connector-curvature="0" />
      <path
         d="m -72.03807,201.14388 h 2.8889 c 0.54398,0 1.05339,-0.0554 1.52788,-0.16757 0.47448,-0.11148 0.88618,-0.28222 1.23543,-0.51294 0.34854,-0.23001 0.62441,-0.51929 0.82655,-0.86854 0.20215,-0.34889 0.30375,-0.76729 0.30375,-1.25589 0,-0.97684 -0.31398,-1.70285 -0.94227,-2.17699 -0.6276,-0.47448 -1.54905,-0.7119 -2.76331,-0.7119 h -3.07693 z m 0,-6.95007 h 3.0353 c 0.36266,0 0.72214,-0.0452 1.07809,-0.13582 0.3556,-0.0907 0.67663,-0.24095 0.96273,-0.45015 0.2861,-0.2092 0.51999,-0.47801 0.70167,-0.8061 0.18133,-0.32737 0.272,-0.72883 0.272,-1.20367 0,-0.15346 -0.0314,-0.36936 -0.0942,-0.64876 -0.0628,-0.27905 -0.20284,-0.5581 -0.41874,-0.8375 -0.21661,-0.27904 -0.53376,-0.51964 -0.9525,-0.72213 -0.41875,-0.20214 -0.9839,-0.30339 -1.69545,-0.30339 h -2.8889 z m -1.50742,-6.48935 h 4.41713 c 0.61383,0 1.20685,0.0628 1.77941,0.18838 0.57185,0.12559 1.08127,0.33479 1.52824,0.62795 0.44661,0.29315 0.80221,0.67733 1.0675,1.15146 0.26494,0.47449 0.39793,1.06081 0.39793,1.75825 0,0.80997 -0.22718,1.50389 -0.6805,2.0828 -0.45368,0.57926 -1.09891,0.96661 -1.9364,1.16205 v 0.042 c 1.04634,0.0836 1.86619,0.45014 2.45957,1.09925 0.59301,0.64876 0.89005,1.51765 0.89005,2.60597 0,0.23742 -0.0596,0.58632 -0.17815,1.04669 -0.11889,0.46073 -0.36654,0.91793 -0.7433,1.37125 -0.37642,0.45367 -0.9211,0.84808 -1.63266,1.18251 -0.7119,0.33514 -1.66088,0.50271 -2.84691,0.50271 h -4.52191 z"
         style="fill:#000000;fill-opacity:1;fill-rule:nonzero;stroke:none;stroke-width:0.35277775"
         id="path5274"
         inkscape:connector-curvature="0" />
    </g>
  </g>
</svg>
